GEOG0114 Principles of Spatial Analysis - 1 Geodemographics
…
Figure 1.2: GB IUC 2018 in Excel

R code

# load libraries
library(tidyverse)
library(tmap)

# load data
iuc <- read_csv("data/index/iuc-gb-2018.csv")

# inspect
iuc

# A tibble: 41,729 × 5
   SHP_ID LSOA11_CD LSOA11_NM              GRP_CD GRP_LABEL                    
    <dbl> <chr>     <chr>                   <dbl> <chr>                        
 1      1 E01020179 South Hams 012C             5 e-Rational Utilitarians      
 2      2 E01033289 Cornwall 007E               9 Settled Offline Communities  
 3      3 W01000189 Conwy 015F                  5 e-Rational Utilitarians      
 4      4 W01001022 Bridgend 014B               7 Passive and Uncommitted Users
 5      5 W01000532 Ceredigion 007B             9 Settled Offline Communities  
 6      6 E01018888 Cornwall 071G               9 Settled Offline Communities  
 7      7 E01018766 Cornwall 028D               9 Settled Offline Communities  
 8      8 E01019948 East Devon 010C             9 Settled Offline Communities  
 9      9 W01000539 Ceredigion 005D             5 e-Rational Utilitarians      
10     10 E01019171 Barrow-in-Furness 005E      6 e-Mainstream                 
# … with 41,719 more rows
…
